{
    "type": "minecraft:crafting_shaped",
    "pattern": [
        " # ",
        "LiL",
        "i i"
    ],
    "key": {
        "#": {
            "item": "minecraft:lantern"
        },
        "L": {
            "item": "minecraft:leather"
        },
        "i": {
            "item": "minecraft:iron_ingot"
        }
    },
    "result": {
        "item": "mining_helmet:mining_helmet",
        "count": 1
    }
}